Library\Bee\artifacts\mvdfrm\Unity.2D.Animation.Editor.ref.dll_6E2D3F6C060285B2.mvfrm
Library\Bee\artifacts\mvdfrm\Unity.2D.Animation.Runtime.ref.dll_BF170BA06B503859.mvfrm
Library\Bee\artifacts\mvdfrm\Unity.2D.Aseprite.Common.ref.dll_B1C4CE264117CF1F.mvfrm
Library\Bee\artifacts\mvdfrm\Unity.2D.Aseprite.Editor.ref.dll_AEADC621423EF9A1.mvfrm
Library\Bee\artifacts\mvdfrm\Unity.2D.Common.Editor.ref.dll_E108E0DA11EEB74B.mvfrm
Library\Bee\artifacts\mvdfrm\Unity.2D.Common.Path.Editor.ref.dll_2EB141AA64AD9B0E.mvfrm
Library\Bee\artifacts\mvdfrm\Unity.2D.Common.Runtime.ref.dll_5587D9B0E574ECB0.mvfrm
Library\Bee\artifacts\mvdfrm\Unity.2D.IK.Editor.ref.dll_62859BF718F90224.mvfrm
Library\Bee\artifacts\mvdfrm\Unity.2D.IK.Runtime.ref.dll_2430AF9EA10453C7.mvfrm
Library\Bee\artifacts\mvdfrm\Unity.2D.PixelPerfect.Editor.ref.dll_C4DE568FD79A6A9F.mvfrm
Library\Bee\artifacts\mvdfrm\Unity.2D.PixelPerfect.ref.dll_8930213CCFEEC632.mvfrm
Library\Bee\artifacts\mvdfrm\Unity.2D.Psdimporter.Editor.ref.dll_E4FF3D879E912623.mvfrm
Library\Bee\artifacts\mvdfrm\Unity.2D.Sprite.Editor.ref.dll_0169DD889AE82A51.mvfrm
Library\Bee\artifacts\mvdfrm\Unity.2D.SpriteShape.Editor.ref.dll_48833A24DB5DB23A.mvfrm
Library\Bee\artifacts\mvdfrm\Unity.2D.SpriteShape.Runtime.ref.dll_31B254B6B6E75F51.mvfrm
Library\Bee\artifacts\mvdfrm\Unity.2D.Tilemap.Editor.ref.dll_217A589FE1735158.mvfrm
Library\Bee\artifacts\mvdfrm\Unity.2D.Tilemap.Extras.Editor.ref.dll_C42BA467554B6753.mvfrm
Library\Bee\artifacts\mvdfrm\Unity.2D.Tilemap.Extras.ref.dll_152C7FE740488E3E.mvfrm
Library\Bee\artifacts\mvdfrm\Unity.Burst.Editor.ref.dll_4F7B73E229D756B2.mvfrm
Library\Bee\artifacts\mvdfrm\Unity.Burst.ref.dll_A9D47564F0C574EF.mvfrm
Library\Bee\artifacts\mvdfrm\Unity.Collections.ref.dll_857DC386F81DA2F4.mvfrm
Library\Bee\artifacts\mvdfrm\Unity.InputSystem.ForUI.ref.dll_E28700F6E181F737.mvfrm
Library\Bee\artifacts\mvdfrm\Unity.InputSystem.ref.dll_1D3F17F22588E4A8.mvfrm
Library\Bee\artifacts\mvdfrm\Unity.InternalAPIEditorBridge.001.ref.dll_DB0A50572B977225.mvfrm
Library\Bee\artifacts\mvdfrm\Unity.InternalAPIEditorBridge.005.ref.dll_BE8C01BFF68D9CA9.mvfrm
Library\Bee\artifacts\mvdfrm\Unity.InternalAPIEngineBridge.001.ref.dll_CD85090190A6596A.mvfrm
Library\Bee\artifacts\mvdfrm\Unity.Mathematics.Editor.ref.dll_BC6BEDEBC6F8BA8C.mvfrm
Library\Bee\artifacts\mvdfrm\Unity.Mathematics.ref.dll_09002A919DF91B75.mvfrm
Library\Bee\artifacts\mvdfrm\Unity.PlasticSCM.Editor.ref.dll_038935ADFCD4A11D.mvfrm
Library\Bee\artifacts\mvdfrm\Unity.Rider.Editor.ref.dll_07D7D7B7487B1198.mvfrm
Library\Bee\artifacts\mvdfrm\Unity.TextMeshPro.Editor.ref.dll_37E92434B2D8A6CF.mvfrm
Library\Bee\artifacts\mvdfrm\Unity.TextMeshPro.ref.dll_A4B478B3CE6E8702.mvfrm
Library\Bee\artifacts\mvdfrm\Unity.Timeline.Editor.ref.dll_0DA365A2C678CBF9.mvfrm
Library\Bee\artifacts\mvdfrm\Unity.Timeline.ref.dll_733236CB90539738.mvfrm
Library\Bee\artifacts\mvdfrm\Unity.VisualScripting.Core.Editor.ref.dll_065CC54F8DD2A924.mvfrm
Library\Bee\artifacts\mvdfrm\Unity.VisualScripting.Core.ref.dll_2F2D99604E6B235D.mvfrm
Library\Bee\artifacts\mvdfrm\Unity.VisualScripting.Flow.Editor.ref.dll_838DADFE9CB13465.mvfrm
Library\Bee\artifacts\mvdfrm\Unity.VisualScripting.Flow.ref.dll_763E79B6D074980C.mvfrm
Library\Bee\artifacts\mvdfrm\Unity.VisualScripting.SettingsProvider.Editor.ref.dll_DB47A982A779F40F.mvfrm
Library\Bee\artifacts\mvdfrm\Unity.VisualScripting.Shared.Editor.ref.dll_634EB3DA1CD7E5BE.mvfrm
Library\Bee\artifacts\mvdfrm\Unity.VisualScripting.State.Editor.ref.dll_8F55C37B46854258.mvfrm
Library\Bee\artifacts\mvdfrm\Unity.VisualScripting.State.ref.dll_06ABD95DCD3386E9.mvfrm
Library\Bee\artifacts\mvdfrm\Unity.VisualStudio.Editor.ref.dll_0788C6E0BDFBBC54.mvfrm
Library\Bee\artifacts\mvdfrm\UnityEditor.UI.ref.dll_5DAE2CC8CF4B8C9E.mvfrm
Library\Bee\artifacts\mvdfrm\UnityEngine.UI.ref.dll_1A140323D56DB509.mvfrm
Library\Bee\artifacts\mvdfrm\UnityEditor.CoreModule.dll_045FEF2CA7CF0E22.mvfrm
Library\Bee\artifacts\mvdfrm\UnityEditor.DeviceSimulatorModule.dll_FBD9E286D923C73F.mvfrm
Library\Bee\artifacts\mvdfrm\UnityEditor.DiagnosticsModule.dll_EFC09ACE40ED91CD.mvfrm
Library\Bee\artifacts\mvdfrm\UnityEditor.dll_53292483902981D3.mvfrm
Library\Bee\artifacts\mvdfrm\UnityEditor.EditorToolbarModule.dll_2A32AAE4F70F032F.mvfrm
Library\Bee\artifacts\mvdfrm\UnityEditor.GraphViewModule.dll_9CDC49E01906FE04.mvfrm
Library\Bee\artifacts\mvdfrm\UnityEditor.PresetsUIModule.dll_584282C21B5F5609.mvfrm
Library\Bee\artifacts\mvdfrm\UnityEditor.QuickSearchModule.dll_7AD01BDB99C48E26.mvfrm
Library\Bee\artifacts\mvdfrm\UnityEditor.SceneTemplateModule.dll_4DD21BA2F5FBAD67.mvfrm
Library\Bee\artifacts\mvdfrm\UnityEditor.SceneViewModule.dll_DB8C2CE80E29CB12.mvfrm
Library\Bee\artifacts\mvdfrm\UnityEditor.TextCoreFontEngineModule.dll_98296728AA905160.mvfrm
Library\Bee\artifacts\mvdfrm\UnityEditor.TextCoreTextEngineModule.dll_E0119D9A3A140A7E.mvfrm
Library\Bee\artifacts\mvdfrm\UnityEditor.UIBuilderModule.dll_F164F6FC8BBF7738.mvfrm
Library\Bee\artifacts\mvdfrm\UnityEditor.UIElementsModule.dll_01B3917095CCDE1E.mvfrm
Library\Bee\artifacts\mvdfrm\UnityEditor.UIElementsSamplesModule.dll_A2440DED49C3CF2F.mvfrm
Library\Bee\artifacts\mvdfrm\UnityEditor.UnityConnectModule.dll_478E1E092148CDD8.mvfrm
Library\Bee\artifacts\mvdfrm\UnityEngine.AccessibilityModule.dll_80778739F671D504.mvfrm
Library\Bee\artifacts\mvdfrm\UnityEngine.AIModule.dll_BB74EDE8CE9D6C36.mvfrm
Library\Bee\artifacts\mvdfrm\UnityEngine.AndroidJNIModule.dll_7FFC7A43DEEC4CF4.mvfrm
Library\Bee\artifacts\mvdfrm\UnityEngine.AnimationModule.dll_6B61C608F363D2AA.mvfrm
Library\Bee\artifacts\mvdfrm\UnityEngine.ARModule.dll_74E7B2EC2BBACAFF.mvfrm
Library\Bee\artifacts\mvdfrm\UnityEngine.AssetBundleModule.dll_BEB94ECCFC2B4318.mvfrm
Library\Bee\artifacts\mvdfrm\UnityEngine.AudioModule.dll_16A29ED84651791C.mvfrm
Library\Bee\artifacts\mvdfrm\UnityEngine.ClothModule.dll_7D8AFBD3206E5800.mvfrm
Library\Bee\artifacts\mvdfrm\UnityEngine.ClusterInputModule.dll_C72A931ED2D0A09E.mvfrm
Library\Bee\artifacts\mvdfrm\UnityEngine.ClusterRendererModule.dll_0186A4F848DED4C3.mvfrm
Library\Bee\artifacts\mvdfrm\UnityEngine.ContentLoadModule.dll_57CFA80DCAADEB05.mvfrm
Library\Bee\artifacts\mvdfrm\UnityEngine.CoreModule.dll_2780C27F4FD4794D.mvfrm
Library\Bee\artifacts\mvdfrm\UnityEngine.CrashReportingModule.dll_64CC14E8B3D75F05.mvfrm
Library\Bee\artifacts\mvdfrm\UnityEngine.DirectorModule.dll_1DD93C1FFDF232AA.mvfrm
Library\Bee\artifacts\mvdfrm\UnityEngine.dll_85CD6B5BEE9D0EB8.mvfrm
Library\Bee\artifacts\mvdfrm\UnityEngine.DSPGraphModule.dll_232A9D89705303CB.mvfrm
Library\Bee\artifacts\mvdfrm\UnityEngine.GameCenterModule.dll_AA49C45EA52D3DE5.mvfrm
Library\Bee\artifacts\mvdfrm\UnityEngine.GIModule.dll_53B136F66A4C5450.mvfrm
Library\Bee\artifacts\mvdfrm\UnityEngine.GridModule.dll_04F1DE6D68290F44.mvfrm
Library\Bee\artifacts\mvdfrm\UnityEngine.HotReloadModule.dll_ECAA840ECE96EE2C.mvfrm
Library\Bee\artifacts\mvdfrm\UnityEngine.ImageConversionModule.dll_6D78A2A8CB038CB7.mvfrm
Library\Bee\artifacts\mvdfrm\UnityEngine.IMGUIModule.dll_4F023E3F0C830CFD.mvfrm
Library\Bee\artifacts\mvdfrm\UnityEngine.InputLegacyModule.dll_4FFE69EB941CF909.mvfrm
Library\Bee\artifacts\mvdfrm\UnityEngine.InputModule.dll_7D186688BC899DC0.mvfrm
Library\Bee\artifacts\mvdfrm\UnityEngine.JSONSerializeModule.dll_E08F1075F5AD358E.mvfrm
Library\Bee\artifacts\mvdfrm\UnityEngine.LocalizationModule.dll_05775D716A4C9397.mvfrm
Library\Bee\artifacts\mvdfrm\UnityEngine.ParticleSystemModule.dll_B7DE5E3521E8EA93.mvfrm
Library\Bee\artifacts\mvdfrm\UnityEngine.PerformanceReportingModule.dll_2D19A834B86E9B0C.mvfrm
Library\Bee\artifacts\mvdfrm\UnityEngine.Physics2DModule.dll_B807B5F99460CA3F.mvfrm
Library\Bee\artifacts\mvdfrm\UnityEngine.PhysicsModule.dll_DD3D471F2EFB9F6D.mvfrm
Library\Bee\artifacts\mvdfrm\UnityEngine.ProfilerModule.dll_501F7556974BB9B7.mvfrm
Library\Bee\artifacts\mvdfrm\UnityEngine.PropertiesModule.dll_D785039D1818A221.mvfrm
Library\Bee\artifacts\mvdfrm\UnityEngine.RuntimeInitializeOnLoadManagerInitializerModule.dll_4FDD1326AD8D3908.mvfrm
Library\Bee\artifacts\mvdfrm\UnityEngine.ScreenCaptureModule.dll_FA76BDFB0A1961F0.mvfrm
Library\Bee\artifacts\mvdfrm\UnityEngine.SharedInternalsModule.dll_F189E17E42318807.mvfrm
Library\Bee\artifacts\mvdfrm\UnityEngine.SpriteMaskModule.dll_937636EEC69CD35F.mvfrm
Library\Bee\artifacts\mvdfrm\UnityEngine.SpriteShapeModule.dll_D81A7C27B1CD7B22.mvfrm
Library\Bee\artifacts\mvdfrm\UnityEngine.StreamingModule.dll_1FF6B35942EB89E8.mvfrm
Library\Bee\artifacts\mvdfrm\UnityEngine.SubstanceModule.dll_FCA1C7A28E3E87F6.mvfrm
Library\Bee\artifacts\mvdfrm\UnityEngine.SubsystemsModule.dll_FE239D5094E4BB72.mvfrm
Library\Bee\artifacts\mvdfrm\UnityEngine.TerrainModule.dll_F783C28E04B9E85B.mvfrm
Library\Bee\artifacts\mvdfrm\UnityEngine.TerrainPhysicsModule.dll_B85907083B2BE520.mvfrm
Library\Bee\artifacts\mvdfrm\UnityEngine.TextCoreFontEngineModule.dll_1688E27BBD8E102B.mvfrm
Library\Bee\artifacts\mvdfrm\UnityEngine.TextCoreTextEngineModule.dll_5E7118ED4D11C949.mvfrm
Library\Bee\artifacts\mvdfrm\UnityEngine.TextRenderingModule.dll_23B63005C150E1E5.mvfrm
Library\Bee\artifacts\mvdfrm\UnityEngine.TilemapModule.dll_96802A0F1C76C964.mvfrm
Library\Bee\artifacts\mvdfrm\UnityEngine.TLSModule.dll_D062D38A3D10CD01.mvfrm
Library\Bee\artifacts\mvdfrm\UnityEngine.UIElementsModule.dll_0261FEB89810F769.mvfrm
Library\Bee\artifacts\mvdfrm\UnityEngine.UIModule.dll_B6E88C162AE471E2.mvfrm
Library\Bee\artifacts\mvdfrm\UnityEngine.UmbraModule.dll_91774AF0D378248F.mvfrm
Library\Bee\artifacts\mvdfrm\UnityEngine.UnityAnalyticsCommonModule.dll_C8586578D257396A.mvfrm
Library\Bee\artifacts\mvdfrm\UnityEngine.UnityAnalyticsModule.dll_D77DCEFECE103C8F.mvfrm
Library\Bee\artifacts\mvdfrm\UnityEngine.UnityConnectModule.dll_34EDA2181BD0CE83.mvfrm
Library\Bee\artifacts\mvdfrm\UnityEngine.UnityCurlModule.dll_9E7E673A6377C497.mvfrm
Library\Bee\artifacts\mvdfrm\UnityEngine.UnityTestProtocolModule.dll_5E06C3DFA3BF2485.mvfrm
Library\Bee\artifacts\mvdfrm\UnityEngine.UnityWebRequestAssetBundleModule.dll_EAAEF41E6FC4B2A0.mvfrm
Library\Bee\artifacts\mvdfrm\UnityEngine.UnityWebRequestAudioModule.dll_A515FC133ED965A4.mvfrm
Library\Bee\artifacts\mvdfrm\UnityEngine.UnityWebRequestModule.dll_7F17AA52D5F82736.mvfrm
Library\Bee\artifacts\mvdfrm\UnityEngine.UnityWebRequestTextureModule.dll_2B2EA149A79CD7F9.mvfrm
Library\Bee\artifacts\mvdfrm\UnityEngine.UnityWebRequestWWWModule.dll_29335E493CD185B5.mvfrm
Library\Bee\artifacts\mvdfrm\UnityEngine.VehiclesModule.dll_959C359F781C0245.mvfrm
Library\Bee\artifacts\mvdfrm\UnityEngine.VFXModule.dll_51416BF9137E366E.mvfrm
Library\Bee\artifacts\mvdfrm\UnityEngine.VideoModule.dll_3BAC234308E394C1.mvfrm
Library\Bee\artifacts\mvdfrm\UnityEngine.VirtualTexturingModule.dll_704831E4EBB9F5AB.mvfrm
Library\Bee\artifacts\mvdfrm\UnityEngine.VRModule.dll_09BAB29BCC9EF75A.mvfrm
Library\Bee\artifacts\mvdfrm\UnityEngine.WindModule.dll_9DCF9DA7E10AF7B6.mvfrm
Library\Bee\artifacts\mvdfrm\UnityEngine.XRModule.dll_3C7975A055D944B8.mvfrm
Library\Bee\artifacts\mvdfrm\Unity.Android.Gradle.dll_DCEB5BE12A34690A.mvfrm
Library\Bee\artifacts\mvdfrm\Unity.Android.GradleProject.dll_635DA74CA435454B.mvfrm
Library\Bee\artifacts\mvdfrm\Unity.Android.Types.dll_E9742748EC00A6D2.mvfrm
Library\Bee\artifacts\mvdfrm\Unity.Collections.LowLevel.ILSupport.dll_2E40CE80E145E521.mvfrm
Library\Bee\artifacts\mvdfrm\Unity.VisualScripting.Antlr3.Runtime.dll_6B5854E2366B9BC5.mvfrm